[gd_scene load_steps=4 format=2]

[ext_resource path="res://raw/base.svg" type="Texture" id=1]
[ext_resource path="res://Interactable.gd" type="Script" id=2]

[sub_resource type="CapsuleShape2D" id=1]
radius = 12.3223
height = 207.659

[node name="BaseStation" type="StaticBody2D" groups=[
"interactable",
]]
position = Vector2( 334.123, 170.807 )
script = ExtResource( 2 )

[node name="Mesh" type="Sprite" parent="."]
scale = Vector2( 0.4, 0.4 )
texture = ExtResource( 1 )

[node name="CollisionShape2D" type="CollisionShape2D" parent="."]
position = Vector2( -11.6636, 33.9071 )
rotation = 1.5708
shape = SubResource( 1 )
