<?xml version="1.0" encoding="UTF-8" standalone="no"?>
<svg
   xmlns:dc="http://purl.org/dc/elements/1.1/"
   xmlns:cc="http://creativecommons.org/ns#"
   xmlns:rdf="http://www.w3.org/1999/02/22-rdf-syntax-ns#"
   xmlns:svg="http://www.w3.org/2000/svg"
   xmlns="http://www.w3.org/2000/svg"
   xmlns:sodipodi="http://sodipodi.sourceforge.net/DTD/sodipodi-0.dtd"
   xmlns:inkscape="http://www.inkscape.org/namespaces/inkscape"
   width="636.90918"
   height="223.17842"
   viewBox="0 0 67.40622 23.619716"
   version="1.1"
   id="svg8"
   inkscape:version="1.0.2 (e86c870879, 2021-01-15, custom)"
   sodipodi:docname="base.svg">
  <defs
     id="defs2" />
  <sodipodi:namedview
     id="base"
     pagecolor="#ffffff"
     bordercolor="#666666"
     borderopacity="1.0"
     inkscape:pageopacity="0.0"
     inkscape:pageshadow="2"
     inkscape:zoom="1.4"
     inkscape:cx="280.35849"
     inkscape:cy="246.69921"
     inkscape:document-units="mm"
     inkscape:current-layer="layer1"
     inkscape:document-rotation="0"
     showgrid="false"
     inkscape:window-width="1920"
     inkscape:window-height="1014"
     inkscape:window-x="0"
     inkscape:window-y="29"
     inkscape:window-maximized="1"
     units="px"
     fit-margin-top="0"
     fit-margin-left="0"
     fit-margin-right="0"
     fit-margin-bottom="0"
     scale-x="0.4" />
  <metadata
     id="metadata5">
    <rdf:RDF>
      <cc:Work
         rdf:about="">
        <dc:format>image/svg+xml</dc:format>
        <dc:type
           rdf:resource="http://purl.org/dc/dcmitype/StillImage" />
        <dc:title></dc:title>
      </cc:Work>
    </rdf:RDF>
  </metadata>
  <g
     inkscape:label="Layer 1"
     inkscape:groupmode="layer"
     id="layer1"
     transform="translate(-1.1979695,-1.3386154)">
    <rect
       style="fill:#ffffff;stroke:#ffffff;stroke-width:0.8;stroke-miterlimit:4;stroke-dasharray:none"
       id="rect835"
       width="60.461815"
       height="5.4713502"
       x="1.5979695"
       y="19.086981"
       ry="2.2580652" />
    <path
       id="path839"
       style="fill:none;stroke:#ffffff;stroke-width:0.8;stroke-miterlimit:4;stroke-dasharray:none"
       d="M 26.20472,1.7386154 A 19.509655,15.18455 0 0 0 6.6948014,16.923218 a 19.509655,15.18455 0 0 0 0.129708,1.74718 c 0.264248,-0.04494 0.539762,-0.0708 0.825273,-0.0708 H 45.594752 A 19.509655,15.18455 0 0 0 45.714124,16.923218 19.509655,15.18455 0 0 0 26.20472,1.7386154 Z" />
    <rect
       style="fill:none;stroke:#ffffff;stroke-width:0.8;stroke-miterlimit:4;stroke-dasharray:none"
       id="rect844"
       width="6.712749"
       height="6.5336666"
       x="21.968851"
       y="12.394247"
       rx="3.3480375"
       ry="0.82086957" />
    <path
       style="fill:none;stroke:#ffffff;stroke-width:0.8;stroke-linecap:butt;stroke-linejoin:miter;stroke-miterlimit:4;stroke-dasharray:none;stroke-opacity:1"
       d="M 57.820949,18.998818 57.409424,9.2671417 67.656779,8.7394806 68.164843,13.82995 57.50808,14.470046"
       id="path846" />
  </g>
</svg>
